{
    "extends": "tslint:recommended",
    "rules": {
        "interface-name": false,
        "max-line-length": [
            true,
            140
        ],
        "no-console": false,
        "no-empty": false,
        "object-literal-sort-keys": false,
        "prefer-const": false,
        "quotemark": [
            true,
            "single",
            "avoid-escape"
        ],
        "semicolon": [
            true,
            "always"
        ],
        "trailing-comma": false,
        "ordered-imports": false
    }
}